Assignment 2 – Logan Lomonaco
…
After importing the data, I found a number missing values in the data that had to be addressed.

Using “na.omit(df)” to omit “na” results in the data frame. also saved the edit as “TEDS_2016_no_na”. also used code to label variables for future charts.

TEDS_2016_no_na = na.omit(TEDS_2016)
TEDS_2016_no_na

# A tibble: 1,074 × 54
   District     Sex     Age     Edu     Arear   Career  Career8 Ethnic  Party   
   <dbl+lbl>    <dbl+l> <dbl+l> <dbl+l> <dbl+l> <dbl+l> <dbl+l> <dbl+l> <dbl+lb>
 1 201 [Yi Lan… 2 [Fem… 2 [30-… 5 [Abo… 1 [Tai… 2 [Low… 3 [CLE… 2 [Bot… 25 [Neu…
 2 201 [Yi Lan… 1 [Mal… 5 [Abo… 5 [Abo… 1 [Tai… 1 [Hig… 1 [Civ… 2 [Bot…  3 [Lea…
 3 201 [Yi Lan… 2 [Fem… 5 [Abo… 2 [Jun… 1 [Tai… 2 [Low… 7 [Hou… 1 [Tai…  6 [Som…
 4 201 [Yi Lan… 1 [Mal… 5 [Abo… 1 [Bel… 1 [Tai… 4 [WOR… 4 [Lab… 2 [Bot… 25 [Neu…
 5 201 [Yi Lan… 2 [Fem… 4 [50-… 5 [Abo… 1 [Tai… 1 [Hig… 2 [Man… 1 [Tai… 24 [Som…
 6 201 [Yi Lan… 2 [Fem… 5 [Abo… 1 [Bel… 1 [Tai… 4 [WOR… 4 [Lab… 1 [Tai… 25 [Neu…
 7 201 [Yi Lan… 1 [Mal… 5 [Abo… 1 [Bel… 1 [Tai… 3 [FAR… 5 [FAR… 1 [Tai…  6 [Som…
 8 201 [Yi Lan… 2 [Fem… 3 [40-… 5 [Abo… 1 [Tai… 4 [WOR… 7 [Hou… 1 [Tai…  3 [Lea…
 9 201 [Yi Lan… 2 [Fem… 4 [50-… 5 [Abo… 1 [Tai… 1 [Hig… 2 [Man… 2 [Bot…  3 [Lea…
10 201 [Yi Lan… 1 [Mal… 3 [40-… 5 [Abo… 1 [Tai… 4 [WOR… 4 [Lab… 1 [Tai… 23 [Lea…
# ℹ 1,064 more rows
# ℹ 45 more variables: PartyID <dbl+lbl>, Tondu <dbl+lbl>, Tondu3 <dbl+lbl>,
#   nI2 <dbl+lbl>, votetsai <dbl>, green <dbl>, votetsai_nm <dbl>,
#   votetsai_all <dbl>, Independence <dbl>, Unification <dbl>, sq <dbl>,
#   Taiwanese <dbl>, edu <dbl>, female <dbl>, whitecollar <dbl>,
#   lowincome <dbl>, income <dbl>, income_nm <dbl>, age <dbl>, KMT <dbl>,
#   DPP <dbl>, npp <dbl>, noparty <dbl>, pfp <dbl>, South <dbl>, north <dbl>, …
…
